1 10 20
100 200 125
201 210 89
900 1000 174
336844 849051 525
44823 300100 443
958586 962260 414
371110 883625 525
347700 366826 410
31682 441663 449
465527 646546 509
200 909454 525
65067 378142 443
39046 717144 509
383264 867989 525
791722 874653 525
461814 733346 509
332124 536697 470
798694 939135 525
47192 794296 509
419972 836322 509
365009 782131 509
525554 818512 509
120881 701554 509
350781 672484 509
428675 887916 525
23121 320742 443
425874 965681 525
639064 780617 504
52431 571674 470
623729 711794 509
354369 836975 509
624638 932447 525
90822 383753 443
127286 357794 443
242916 439599 449
714308 902934 525
421249 752148 509
8731 407958 443
715242 731184 411
121291 311013 443
150615 726058 509
597053 879640 525
443939 739486 509
749338 990062 525
657666 692921 442
622447 975468 525
354924 903756 525
122352 463914 449
214142 427437 449
60176 430537 449
483140 663920 509
918814 945567 507
92953 165875 383
480267 907119 525
61097 567530 470
532719 913566 525
190660 779975 509
528228 538275 377
378506 707786 509
186330 717216 509
296460 519798 470
690936 692747 442
845773 911447 476
450332 831661 509
530860 903902 525
254259 781154 509
414604 874923 525
435231 475541 444
142821 169633 383
236276 546186 470
30201 425627 449
852330 869423 419
439306 611143 470
307182 552270 470
61229 313992 443
300124 755783 509
612138 641814 509
490 796660 509
463498 631753 509
490212 942940 525
172613 972188 525
656240 727797 504
11879 873550 525
418573 843711 525
175143 323689 443
113983 879751 525
473931 619910 470
131647 835885 509
401930 607724 470
267942 736870 509
44831 873623 525
559754 948533 525
817212 863145 525
577153 962446 525
397158 547487 470
88209 680395 509
594596 750158 509
1834 246669 443
151766 648759 509
163518 629478 509
147805 771883 509
55198 311230 443
164910 616726 470
72370 272747 443
578974 911019 525
106650 661213 509
309771 486786 449
785657 980224 525
99610 728041 509
331271 915898 525
506616 978384 525
250695 356887 441
603848 842864 525
351165 399504 436
133965 726000 509
58152 962420 525
159591 635972 509
867269 919796 476
103015 222466 386
578723 790351 509
701329 986732 525
311774 431004 449
54991 366557 443
216430 836246 509
646303 928837 525
339931 988811 525
403973 743817 509
199180 810901 509
344597 413834 449
305326 579921 470
88632 128794 354
5053 876613 525
522833 624615 452
222166 549195 470
332754 760329 509
644562 662863 429
195482 466457 449
625205 940313 525
418798 737251 509
525547 811288 509
928741 952174 507
37248 266585 443
184645 675848 509
56867 370378 443
506360 533617 470
83113 399559 443
572627 651630 509
353879 653424 509
174012 804418 509
79827 972274 525
540529 967201 525
155129 926907 525
187574 950259 525
