79 226 125
271 239 123
189 358 144
132 58 122
161 490 144
465 33 144
57 372 144
408 125 144
164 387 144
419 62 144
180 37 125
245 222 128
92 153 122
285 174 128
445 304 144
41 340 144
497 71 144
393 125 144
75 153 122
296 424 144
203 53 125
453 124 144
247 273 123
197 6 125
447 49 144
352 391 126
460 471 129
65 419 144
225 418 144
479 297 144
445 324 144
281 276 43
269 39 128
310 162 128
179 231 128
51 462 144
281 478 144
85 452 144
268 303 118
274 340 144
45 271 128
479 488 142
109 325 131
334 499 142
212 191 120
350 325 144
52 252 128
373 136 144
114 353 144
475 465 129
13479 28903 308
67373 48392 340
50598 30859 324
47703 84085 351
77319 38794 351
27594 78872 351
77391 31307 351
27234 74397 340
31352 68731 340
16487 88532 351
25494 87230 351
83653 76969 351
57083 52753 322
59028 94875 351
45247 95672 351
97364 79906 333
10012 79987 351
43232 68474 340
56166 35869 340
75325 86878 351
47010 42565 314
99870 16875 351
75323 45479 340
81248 65284 351
48853 49687 296
18507 97759 351
72282 69145 325
42180 13836 324
78622 91128 338
93629 12027 351
61289 24224 340
52662 18842 340
40968 82997 351
61360 15376 340
14403 13344 258
98184 60258 351
94585 76125 351
88047 80055 333
71208 84780 351
25710 80618 351
69463 13899 340
37640 61900 340
25686 74983 340
53440 23934 340
97100 74213 351
64934 52255 340
58155 81489 351
55896 61692 335
69722 71865 325
14069 17973 279
789511 725207 468
580636 991294 525
822618 908562 525
972791 582395 525
812732 797764 406
678278 774749 504
959047 924574 507
843375 563621 525
824042 581915 509
582002 652310 509
836509 651765 504
937937 580501 525
640841 624885 509
718531 519484 509
927200 887167 476
769526 954116 525
947028 644992 525
641991 991486 525
960269 644020 525
826980 952229 525
533385 860867 525
922431 738650 525
702144 689845 442
855412 959374 507
570043 868054 525
847445 639977 525
776146 700887 504
538050 704392 509
611060 708480 509
722462 645091 504
825565 600151 509
639930 583444 509
676144 576000 509
814242 528549 509
536162 612100 452
753897 551101 509
593324 635900 509
602848 795876 509
649866 723204 504
517497 663042 509
800130 695469 504
800589 523765 509
544047 971160 525
934174 990139 507
523155 801011 509
673459 974361 525
988328 877468 507
833892 790946 468
841890 915908 476
809133 794500 468
