307833 989495 525
592128 806061 509
290436 938212 525
476924 739163 509
190251 544716 470
389347 957653 525
50635 983327 525
621021 622769 372
216259 602552 470
311798 396491 441
171653 309100 443
431882 813895 509
240776 277244 407
74282 109292 354
850502 894238 445
122265 722867 509
888184 983969 507
484893 554351 470
352442 718934 509
55716 547549 470
502531 514091 470
869941 907619 445
220978 357673 443
357285 362642 410
656402 788537 504
88777 273814 443
216693 348698 443
317701 862046 525
971 781954 509
151475 939537 525
215155 362540 443
357745 683591 509
393311 632052 509
505483 955586 525
680474 832131 504
86436 738819 509
235532 887275 525
172841 400603 443
560397 697678 509
239858 684509 509
714864 918550 525
593869 729220 509
93221 548722 470
394004 662238 509
78175 694447 509
306532 525624 470
52722 569278 470
339913 394645 441
187421 482172 449
496143 572410 470
422650 749821 509
762872 934596 525
103133 971514 525
227412 488155 449
72138 723262 509
183761 208526 373
61504 286115 443
468521 953799 525
129015 554693 470
863298 937197 476
801982 883924 525
710661 864894 525
151699 672633 509
275517 679727 509
112998 939317 525
373014 826959 509
305109 485402 449
516239 657757 509
81419 884888 525
62313 557171 470
193931 605282 470
109828 203750 383
519632 973003 525
218034 621489 470
549838 715134 509
524398 566029 452
258077 921471 525
58136 242195 443
295825 414207 449
71347 237906 443
67609 77383 351
100289 358267 443
679252 725306 504
13755 134094 354
264340 486462 449
231164 238925 381
133003 841636 525
759342 851027 525
150257 469149 449
389870 912855 525
970457 975813 458
279377 839049 525
598458 827866 509
954763 982128 458
348237 800199 509
410811 624169 470
177937 493893 449
152380 219681 386
70446 434950 449
227418 452072 449
670984 683941 385
17832 494074 449
78778 749456 509
291040 835913 509
157592 675800 509
762987 964756 525
3287 618330 470
57753 941349 525
206581 387435 443
98400 221334 386
122353 974930 525
442200 876003 525
167642 881934 525
924255 942698 507
360130 791272 509
252477 441672 449
435195 645251 509
621694 670798 509
287058 960014 525
21938 367586 443
180824 731718 509
270087 425704 449
118654 449885 449
450185 511888 444
324075 439772 449
142007 463675 449
112438 615913 470
137025 460302 449
428295 794491 509
63119 299277 443
804584 827013 450
540307 624605 452
567415 761204 509
197581 220705 386
362572 848259 525
220797 243249 443
431586 782861 509
430642 579967 470
388125 883301 525
111372 720356 509
42833 169010 383
706046 935504 525
75632 892841 525
248971 735732 509
38848 107229 354
465606 648612 509
19095 155420 375
452799 943920 525
164593 714532 509
517678 921979 525
7298 385459 443
585560 985868 525
242535 464450 449
110460 870173 525
197509 772412 509
99784 614145 470
438050 509637 444
82429 420194 449
187187 605161 470
660622 957262 525
895848 909325 445
35722 148289 375
57672 558699 470
341445 485900 449
62093 138459 354
755929 829348 468
470286 890369 525
866852 881739 432
226865 281855 443
327781 909158 525
232336 489418 449
863922 971610 507
376522 376571 224
84954 667970 509
129540 409063 443
160375 922469 525
106720 544754 470
218320 317914 443
665418 836261 504
44412 882587 525
56189 722184 509
191245 726379 509
126390 809282 509
309362 519722 470
172458 175199 347
683950 875638 525
632930 910527 525
122408 750562 509
28235 882559 525
196077 522920 470
520552 529641 408
572168 880700 525
108428 267690 443
43632 848923 525
519664 904964 525
211001 312831 443
192761 365699 443
263468 596362 470
261044 515744 470
