1 10 20
100 200 125
201 210 89
900 1000 174
1 1 1
2 2 2
3 3 8
4 4 3
5 5 6
6 6 9
7 7 17
8 8 4
9 9 20
10 10 7
11 11 15
12 12 10
13 13 10
14 14 18
15 15 18
16 16 5
17 17 13
18 18 21
19 19 21
1 2 2
2 3 8
3 4 8
4 5 6
5 6 9
6 7 17
7 8 17
8 9 20
9 10 20
10 11 15
11 12 15
12 13 10
13 14 18
14 15 18
15 16 18
16 17 13
17 18 21
18 19 21
19 20 21
2 1 2
3 2 8
4 3 8
5 4 6
6 5 9
7 6 17
8 7 17
9 8 20
10 9 20
11 10 15
12 11 15
13 12 10
14 13 18
15 14 18
16 15 18
17 16 13
18 17 21
19 18 21
20 19 21
1 500000 449
1 500001 449
1 500002 449
1 500003 449
1 500004 449
1 500005 449
1 500006 449
1 500007 449
1 500008 449
1 500009 449
1 500010 449
1 500011 449
1 500012 449
1 500013 449
1 500014 449
1 500015 449
1 500016 449
1 500017 449
1 500018 449
1 500019 449
532677 245803 470
377663 851218 525
890165 495311 525
50124 335322 443
106743 734991 509
451268 271520 449
236422 817674 509
165838 91062 383
265753 704789 509
505089 389612 449
627058 271882 509
295921 84917 443
11226 631492 509
983153 927399 507
810039 473390 509
631171 559738 509
868005 789099 525
444246 359674 449
443549 845462 525
